7 Editing Data Frame_7 – R Guide
…
Some might question, why do we need dplyr? For instance, summarize() does same thing that mean() function does. Can’t we just use what R have? That is true, technically you can do everything that dplyr using basic R functions. However, there are some tricky situations. Remember how indexing df sometimes gives us df while other times it gives us list/vectors ([] vs [[]])? Basic R funcitions’ input and output formats are different case by case, causing issues in analysis (because dimension might change and two different data might be incompetible for regression). However, dlpyr input and ouput structure of data stable and consistent.

10 Loading Example Dataset

In R, and dlpyr, there are multiple example dataset available for us to practice coding and analysis. one of them is called ‘mpg,’ data collected by U.S EPA from 1998 to 2008 regarding vehicle type and their fuel efficiency. To practice dlpyr functions, let’s first load mpg data.

mpg

# A tibble: 234 × 11
   manufacturer model      displ  year   cyl trans drv     cty   hwy fl    class
   <chr>        <chr>      <dbl> <int> <int> <chr> <chr> <int> <int> <chr> <chr>
 1 audi         a4           1.8  1999     4 auto… f        18    29 p     comp…
 2 audi         a4           1.8  1999     4 manu… f        21    29 p     comp…
 3 audi         a4           2    2008     4 manu… f        20    31 p     comp…
 4 audi         a4           2    2008     4 auto… f        21    30 p     comp…
 5 audi         a4           2.8  1999     6 auto… f        16    26 p     comp…
 6 audi         a4           2.8  1999     6 manu… f        18    26 p     comp…
 7 audi         a4           3.1  2008     6 auto… f        18    27 p     comp…
 8 audi         a4 quattro   1.8  1999     4 manu… 4        18    26 p     comp…
 9 audi         a4 quattro   1.8  1999     4 auto… 4        16    25 p     comp…
10 audi         a4 quattro   2    2008     4 manu… 4        20    28 p     comp…
# ℹ 224 more rows

Each column consist following data: -manufacturer : maker of the car -model : name of the car -displ : engine displacement -year : year of the model -cyl : number of engine cylinder -trans : type of car transmission -drv : driving system. f = forward, r = rear, 4 = four wheel drive -cty : fuel efficiency in city -hwy : fuel efficiency in highway -fl : type of fuel -class : type of car (compact, suv, etc)

#Selecting Rows ## filter() First, let’s try out extracting rows that meets your column condition.

You use filter() by

filter(dataframe, condition)

filter(mpg, manufacturer == "dodge")

# A tibble: 37 × 11
   manufacturer model      displ  year   cyl trans drv     cty   hwy fl    class
   <chr>        <chr>      <dbl> <int> <int> <chr> <chr> <int> <int> <chr> <chr>
 1 dodge        caravan 2…   2.4  1999     4 auto… f        18    24 r     mini…
 2 dodge        caravan 2…   3    1999     6 auto… f        17    24 r     mini…
 3 dodge        caravan 2…   3.3  1999     6 auto… f        16    22 r     mini…
 4 dodge        caravan 2…   3.3  1999     6 auto… f        16    22 r     mini…
 5 dodge        caravan 2…   3.3  2008     6 auto… f        17    24 r     mini…
 6 dodge        caravan 2…   3.3  2008     6 auto… f        17    24 r     mini…
 7 dodge        caravan 2…   3.3  2008     6 auto… f        11    17 e     mini…
 8 dodge        caravan 2…   3.8  1999     6 auto… f        15    22 r     mini…
 9 dodge        caravan 2…   3.8  1999     6 auto… f        15    21 r     mini…
10 dodge        caravan 2…   3.8  2008     6 auto… f        16    23 r     mini…
# ℹ 27 more rows

filter(mpg, year > 2001)

# A tibble: 117 × 11
   manufacturer model      displ  year   cyl trans drv     cty   hwy fl    class
   <chr>        <chr>      <dbl> <int> <int> <chr> <chr> <int> <int> <chr> <chr>
 1 audi         a4           2    2008     4 manu… f        20    31 p     comp…
 2 audi         a4           2    2008     4 auto… f        21    30 p     comp…
 3 audi         a4           3.1  2008     6 auto… f        18    27 p     comp…
 4 audi         a4 quattro   2    2008     4 manu… 4        20    28 p     comp…
 5 audi         a4 quattro   2    2008     4 auto… 4        19    27 p     comp…
 6 audi         a4 quattro   3.1  2008     6 auto… 4        17    25 p     comp…
 7 audi         a4 quattro   3.1  2008     6 manu… 4        15    25 p     comp…
 8 audi         a6 quattro   3.1  2008     6 auto… 4        17    25 p     mids…
 9 audi         a6 quattro   4.2  2008     8 auto… 4        16    23 p     mids…
10 chevrolet    c1500 sub…   5.3  2008     8 auto… r        14    20 r     suv  
# ℹ 107 more rows

What if we have multiple conditions? We just add more conditions, like

filter(datafram, condition 1, condition2, etc)

filter(mpg, manufacturer == "dodge", year > 2001)

# A tibble: 21 × 11
   manufacturer model      displ  year   cyl trans drv     cty   hwy fl    class
   <chr>        <chr>      <dbl> <int> <int> <chr> <chr> <int> <int> <chr> <chr>
 1 dodge        caravan 2…   3.3  2008     6 auto… f        17    24 r     mini…
 2 dodge        caravan 2…   3.3  2008     6 auto… f        17    24 r     mini…
 3 dodge        caravan 2…   3.3  2008     6 auto… f        11    17 e     mini…
 4 dodge        caravan 2…   3.8  2008     6 auto… f        16    23 r     mini…
 5 dodge        caravan 2…   4    2008     6 auto… f        16    23 r     mini…
 6 dodge        dakota pi…   3.7  2008     6 manu… 4        15    19 r     pick…
 7 dodge        dakota pi…   3.7  2008     6 auto… 4        14    18 r     pick…
 8 dodge        dakota pi…   4.7  2008     8 auto… 4        14    19 r     pick…
 9 dodge        dakota pi…   4.7  2008     8 auto… 4        14    19 r     pick…
10 dodge        dakota pi…   4.7  2008     8 auto… 4         9    12 e     pick…
# ℹ 11 more rows

filter(mpg, year > 2001 | cty >= 30) #What does this mean? Review operator if you don't remember!

# A tibble: 119 × 11
   manufacturer model      displ  year   cyl trans drv     cty   hwy fl    class
   <chr>        <chr>      <dbl> <int> <int> <chr> <chr> <int> <int> <chr> <chr>
 1 audi         a4           2    2008     4 manu… f        20    31 p     comp…
 2 audi         a4           2    2008     4 auto… f        21    30 p     comp…
 3 audi         a4           3.1  2008     6 auto… f        18    27 p     comp…
 4 audi         a4 quattro   2    2008     4 manu… 4        20    28 p     comp…
 5 audi         a4 quattro   2    2008     4 auto… 4        19    27 p     comp…
 6 audi         a4 quattro   3.1  2008     6 auto… 4        17    25 p     comp…
 7 audi         a4 quattro   3.1  2008     6 manu… 4        15    25 p     comp…
 8 audi         a6 quattro   3.1  2008     6 auto… 4        17    25 p     mids…
 9 audi         a6 quattro   4.2  2008     8 auto… 4        16    23 p     mids…
10 chevrolet    c1500 sub…   5.3  2008     8 auto… r        14    20 r     suv  
# ℹ 109 more rows
…
Do you see how order of output columns changed?

12 Adding Columns

12.1 mutate()

mutate() is creating new column at the end of the dataframe using existing column. For example, let’s extract fuel efficiency of cars

fueldata <- select(mpg, cty, hwy)
fueldata

# A tibble: 234 × 2
     cty   hwy
   <int> <int>
 1    18    29
 2    21    29
 3    20    31
 4    21    30
 5    16    26
 6    18    26
 7    18    27
 8    18    26
 9    16    25
10    20    28
# ℹ 224 more rows

now, if we want to calculate average of two and save it into same data frame, we can use mutate() using following manner

mutate(dataframe, new variable (column name) = equation)

mutate(fueldata, avg = (cty + hwy)/2)

# A tibble: 234 × 3
     cty   hwy   avg
   <int> <int> <dbl>
 1    18    29  23.5
 2    21    29  25  
 3    20    31  25.5
 4    21    30  25.5
 5    16    26  21  
 6    18    26  22  
 7    18    27  22.5
 8    18    26  22  
 9    16    25  20.5
10    20    28  24  
# ℹ 224 more rows

If you want to only keep new column and disregard all existing columns, you can use transmute() instead.

transmute(fueldata, mean = (cty + hwy)/2) 

# A tibble: 234 × 1
    mean
   <dbl>
 1  23.5
 2  25  
 3  25.5
 4  25.5
 5  21  
 6  22  
 7  22.5
 8  22  
 9  20.5
10  24  
# ℹ 224 more rows
…
Now you see the statistics of average city fuel efficiency of all cars registered in the mpg data frame!

12.2 group_by()

While summarize() shows overview of entire dataset, there is one limitation: it summarize everything. What if we want summary by marker? Like, what if we want to see average cty of Audi and Sonata serpeately instead of all cars? This is when group_by() becomes useful.

group_by() puts data into each brackets. What does that mean?

perMaker <- group_by(mpg, manufacturer)
perMaker

# A tibble: 234 × 11
# Groups:   manufacturer [15]
   manufacturer model      displ  year   cyl trans drv     cty   hwy fl    class
   <chr>        <chr>      <dbl> <int> <int> <chr> <chr> <int> <int> <chr> <chr>
 1 audi         a4           1.8  1999     4 auto… f        18    29 p     comp…
 2 audi         a4           1.8  1999     4 manu… f        21    29 p     comp…
 3 audi         a4           2    2008     4 manu… f        20    31 p     comp…
 4 audi         a4           2    2008     4 auto… f        21    30 p     comp…
 5 audi         a4           2.8  1999     6 auto… f        16    26 p     comp…
 6 audi         a4           2.8  1999     6 manu… f        18    26 p     comp…
 7 audi         a4           3.1  2008     6 auto… f        18    27 p     comp…
 8 audi         a4 quattro   1.8  1999     4 manu… 4        18    26 p     comp…
 9 audi         a4 quattro   1.8  1999     4 auto… 4        16    25 p     comp…
10 audi         a4 quattro   2    2008     4 manu… 4        20    28 p     comp…
# ℹ 224 more rows
…
Now, compare the difference with summarize(mpg, same arguments). Do you see the difference? Remember, group_by() is grouping data, nothing special. This means you can combine group_by() with other dplyr functions like mutate(), select(), and more!

perMaker1 <- mutate(perMaker, rank = min_rank(desc(cty)))
select(perMaker1, 1:2, cty, rank) #Ranking cty from highest to lowest.

# A tibble: 234 × 4
# Groups:   manufacturer [15]
   manufacturer model        cty  rank
   <chr>        <chr>      <int> <int>
 1 audi         a4            18     6
 2 audi         a4            21     1
 3 audi         a4            20     3
 4 audi         a4            21     1
 5 audi         a4            16    13
 6 audi         a4            18     6
 7 audi         a4            18     6
 8 audi         a4 quattro    18     6
 9 audi         a4 quattro    16    13
10 audi         a4 quattro    20     3
# ℹ 224 more rows
…
